<?xml version="1.0" encoding="UTF-8" standalone="no"?>
<!-- Created with Inkscape (http://www.inkscape.org/) -->

<svg
   xmlns:osb="http://www.openswatchbook.org/uri/2009/osb"
   xmlns:dc="http://purl.org/dc/elements/1.1/"
   xmlns:cc="http://creativecommons.org/ns#"
   xmlns:rdf="http://www.w3.org/1999/02/22-rdf-syntax-ns#"
   xmlns:svg="http://www.w3.org/2000/svg"
   xmlns="http://www.w3.org/2000/svg"
   xmlns:sodipodi="http://sodipodi.sourceforge.net/DTD/sodipodi-0.dtd"
   xmlns:inkscape="http://www.inkscape.org/namespaces/inkscape"
   width="200"
   height="200"
   viewBox="0 0 52.916665 52.916668"
   version="1.1"
   id="svg8"
   inkscape:version="0.92.3 (2405546, 2018-03-11)"
   sodipodi:docname="help_selected.svg">
  <defs
     id="defs2">
    <linearGradient
       id="linearGradient2497"
       osb:paint="solid">
      <stop
         style="stop-color:#000000;stop-opacity:1;"
         offset="0"
         id="stop2495" />
    </linearGradient>
  </defs>
  <sodipodi:namedview
     id="base"
     pagecolor="#ffffff"
     bordercolor="#666666"
     borderopacity="1.0"
     inkscape:pageopacity="0.0"
     inkscape:pageshadow="2"
     inkscape:zoom="2.9185023"
     inkscape:cx="-57.749467"
     inkscape:cy="110.41341"
     inkscape:document-units="mm"
     inkscape:current-layer="layer1"
     showgrid="false"
     units="px"
     inkscape:window-width="1872"
     inkscape:window-height="1017"
     inkscape:window-x="48"
     inkscape:window-y="34"
     inkscape:window-maximized="1" />
  <metadata
     id="metadata5">
    <rdf:RDF>
      <cc:Work
         rdf:about="">
        <dc:format>image/svg+xml</dc:format>
        <dc:type
           rdf:resource="http://purl.org/dc/dcmitype/StillImage" />
        <dc:title></dc:title>
      </cc:Work>
    </rdf:RDF>
  </metadata>
  <g
     inkscape:label="Calque 1"
     inkscape:groupmode="layer"
     id="layer1"
     transform="translate(0,-244.08332)"
     style="display:inline">
    <path
       id="path50"
       style="fill:#c4d7ed;fill-opacity:0;stroke:#000000;stroke-width:2.35299993;stroke-miterlimit:4;stroke-dasharray:none;stroke-opacity:1"
       d="M 26.290595,246.31671 A 24.483326,24.483329 0 0 0 1.8072867,270.7998 24.483326,24.483329 0 0 0 26.290595,295.28341 24.483326,24.483329 0 0 0 50.773901,270.7998 24.483326,24.483329 0 0 0 26.290595,246.31671 Z"
       inkscape:connector-curvature="0" />
    <g
       transform="matrix(0.52374658,0,0,0.52374658,2.2514971,246.85853)"
       id="g357"
       style="fill:#0080c0;fill-opacity:1">
      <path
         inkscape:connector-curvature="0"
         style="fill:#0080c0;fill-opacity:1"
         d="M 45.386,0.004 C 19.983,0.344 -0.333,21.215 0.005,46.619 0.345,72.012 21.214,92.334 46.616,91.996 72.014,91.654 92.334,70.783 91.996,45.381 91.656,19.986 70.786,-0.335 45.386,0.004 Z M 45.25,74 44.996,73.996 c -3.912,-0.116 -6.67,-2.998 -6.559,-6.852 0.109,-3.788 2.934,-6.538 6.717,-6.538 l 0.227,0.004 c 4.021,0.119 6.748,2.972 6.635,6.937 C 51.904,71.346 49.123,74 45.25,74 Z M 61.705,41.341 c -0.92,1.307 -2.943,2.93 -5.492,4.916 l -2.807,1.938 c -1.541,1.198 -2.471,2.325 -2.82,3.434 -0.275,0.873 -0.41,1.104 -0.434,2.88 L 50.148,54.96 H 39.43 l 0.031,-0.907 c 0.131,-3.728 0.223,-5.921 1.768,-7.733 2.424,-2.846 7.771,-6.289 7.998,-6.435 0.766,-0.577 1.412,-1.234 1.893,-1.936 1.125,-1.551 1.623,-2.772 1.623,-3.972 0,-1.665 -0.494,-3.205 -1.471,-4.576 -0.939,-1.323 -2.723,-1.993 -5.303,-1.993 -2.559,0 -4.311,0.812 -5.359,2.478 -1.078,1.713 -1.623,3.512 -1.623,5.35 v 0.457 H 27.936 l 0.02,-0.477 C 28.241,28.447 30.657,23.573 35.134,20.729 37.947,18.918 41.447,18 45.531,18 c 5.346,0 9.859,1.299 13.412,3.861 3.6,2.596 5.426,6.484 5.426,11.556 0,2.837 -0.896,5.502 -2.664,7.924 z"
         id="path355" />
    </g>
    <path
       style="fill:#000000;fill-opacity:1;stroke:#000000;stroke-width:0.3426415;stroke-opacity:0"
       d="m 86.773816,115.37036 c 0.571684,-9.82825 1.514389,-11.9154 7.883655,-17.454426 1.31917,-1.147215 4.248755,-3.40993 6.510189,-5.02825 6.49486,-4.64784 6.59731,-4.733267 8.27352,-6.89883 3.26193,-4.214237 4.21469,-7.980535 3.04054,-12.01945 -1.7673,-6.079323 -4.831,-8.613952 -11.1845,-9.25305 -2.800721,-0.281725 -6.35307,0.29906 -8.507869,1.390979 -3.695445,1.872624 -6.572457,6.974479 -7.093314,12.578696 l -0.216972,2.334524 H 74.684488 63.88991 l 0.225464,-3.169434 C 65.441717,59.206178 76.669489,47.806793 95.088967,46.4041 c 11.611773,-0.884267 22.826693,2.014017 30.679773,7.928609 8.04525,6.059316 11.75441,17.372165 9.29158,28.33905 -0.95963,4.273243 -3.65247,9.115521 -6.75669,12.149941 -2.32715,2.274828 -7.69923,6.57891 -11.37446,9.11317 -6.4549,4.45098 -8.73212,7.58847 -9.01158,12.4159 l -0.15647,2.70299 H 97.160341 86.559563 Z"
       id="path2176"
       inkscape:connector-curvature="0"
       transform="matrix(0.26458333,0,0,0.26458333,0,244.08332)" />
    <path
       style="fill:#000000;fill-opacity:1;stroke:#000000;stroke-width:0.3426415;stroke-opacity:0"
       d="m 93.228262,156.08173 c -5.194415,-1.87001 -8.390711,-6.35279 -8.44485,-11.84382 -0.04965,-5.0354 1.842214,-8.9207 5.549036,-11.39602 2.585499,-1.72653 4.876006,-2.27649 8.651873,-2.07736 7.527339,0.39697 12.291259,5.50357 12.291259,13.17539 0,5.78623 -3.14982,10.31461 -8.44077,12.13497 -2.59104,0.89144 -7.14034,0.89468 -9.606548,0.007 z"
       id="path2178"
       inkscape:connector-curvature="0"
       transform="matrix(0.26458333,0,0,0.26458333,0,244.08332)" />
    <path
       id="path50-3"
       style="display:inline;fill:none;fill-opacity:1;stroke:#000000;stroke-width:2.35300016;stroke-miterlimit:4;stroke-dasharray:none;stroke-opacity:1"
       d="M 26.290595,246.31671 A 24.483326,24.483329 0 0 0 1.807286,270.7998 24.483326,24.483329 0 0 0 26.290595,295.28341 24.483326,24.483329 0 0 0 50.7739,270.7998 24.483326,24.483329 0 0 0 26.290595,246.31671 Z"
       inkscape:connector-curvature="0" />
  </g>
  <g
     inkscape:groupmode="layer"
     id="layer2"
     inkscape:label="Calque 2"
     style="display:inline" />
</svg>
