<?xml version="1.0" encoding="UTF-8" standalone="no"?>
<!-- Created with Inkscape (http://www.inkscape.org/) -->

<svg
   xmlns:osb="http://www.openswatchbook.org/uri/2009/osb"
   xmlns:dc="http://purl.org/dc/elements/1.1/"
   xmlns:cc="http://creativecommons.org/ns#"
   xmlns:rdf="http://www.w3.org/1999/02/22-rdf-syntax-ns#"
   xmlns:svg="http://www.w3.org/2000/svg"
   xmlns="http://www.w3.org/2000/svg"
   xmlns:sodipodi="http://sodipodi.sourceforge.net/DTD/sodipodi-0.dtd"
   xmlns:inkscape="http://www.inkscape.org/namespaces/inkscape"
   width="200"
   height="200"
   viewBox="0 0 52.916665 52.916668"
   version="1.1"
   id="svg8"
   inkscape:version="0.92.3 (2405546, 2018-03-11)"
   sodipodi:docname="layout.svg">
  <defs
     id="defs2">
    <linearGradient
       id="linearGradient2497"
       osb:paint="solid">
      <stop
         style="stop-color:#000000;stop-opacity:1;"
         offset="0"
         id="stop2495" />
    </linearGradient>
  </defs>
  <sodipodi:namedview
     id="base"
     pagecolor="#ffffff"
     bordercolor="#666666"
     borderopacity="1.0"
     inkscape:pageopacity="0.0"
     inkscape:pageshadow="2"
     inkscape:zoom="2.0636928"
     inkscape:cx="-115.38014"
     inkscape:cy="66.70214"
     inkscape:document-units="mm"
     inkscape:current-layer="layer1"
     showgrid="false"
     units="px"
     inkscape:window-width="1872"
     inkscape:window-height="1017"
     inkscape:window-x="48"
     inkscape:window-y="34"
     inkscape:window-maximized="1" />
  <metadata
     id="metadata5">
    <rdf:RDF>
      <cc:Work
         rdf:about="">
        <dc:format>image/svg+xml</dc:format>
        <dc:type
           rdf:resource="http://purl.org/dc/dcmitype/StillImage" />
        <dc:title />
      </cc:Work>
    </rdf:RDF>
  </metadata>
  <g
     inkscape:label="Calque 1"
     inkscape:groupmode="layer"
     id="layer1"
     transform="translate(0,-244.08332)"
     style="display:inline">
    <path
       id="path50"
       style="fill:#c4d7ed;fill-opacity:1;stroke:#000000;stroke-width:2.35299993;stroke-miterlimit:4;stroke-dasharray:none;stroke-opacity:1"
       d="M 26.290595,246.31671 A 24.483326,24.483329 0 0 0 1.8072867,270.7998 24.483326,24.483329 0 0 0 26.290595,295.28341 24.483326,24.483329 0 0 0 50.773901,270.7998 24.483326,24.483329 0 0 0 26.290595,246.31671 Z"
       inkscape:connector-curvature="0" />
    <path
       style="stroke-width:0.05728379"
       inkscape:connector-curvature="0"
       d="m 23.259154,282.95384 h -2.635056 c -0.23719,0 -0.429628,-0.19243 -0.429628,-0.42962 0,-0.23741 0.192438,-0.42963 0.429628,-0.42963 h 2.635056 c 0.237413,0 0.429628,0.19222 0.429628,0.42963 0,0.23719 -0.192215,0.42962 -0.429628,0.42962 z m 0,0"
       id="path5285" />
    <path
       style="stroke-width:0.05728379"
       inkscape:connector-curvature="0"
       d="M 25.096935,256.02219 H 14.228228 c -0.23719,0 -0.429628,0.19243 -0.429628,0.42962 v 10.86871 c 0,0.23741 0.192438,0.42963 0.429628,0.42963 h 10.868707 c 0.23719,0 0.429628,-0.19222 0.429628,-0.42963 v -10.86871 c 0,-0.23719 -0.192438,-0.42962 -0.429628,-0.42962 z m -8.055535,10.86871 2.766628,-4.79193 2.766628,4.79193 z m 3.865091,-4.608 -0.726341,-1.25801 c -0.07675,-0.13291 -0.218395,-0.21481 -0.372122,-0.21481 -0.153502,0 -0.295144,0.0819 -0.371897,0.21481 l -1.196246,2.07185 c -0.90334,-0.32916 -1.513994,-1.18596 -1.513994,-2.16963 0,-1.27389 1.03648,-2.31015 2.310372,-2.31015 1.273894,0 2.31015,1.03626 2.31015,2.31015 0,0.49183 -0.154846,0.96354 -0.439922,1.35579 z m 3.760814,4.608 h -1.10025 l -2.202294,-3.81431 c 0.542405,-0.58715 0.840908,-1.34862 0.840908,-2.14948 0,-1.74761 -1.421802,-3.16941 -3.169406,-3.16941 -1.747604,0 -3.169628,1.4218 -3.169628,3.16941 0,1.29829 0.775792,2.43591 1.938699,2.92215 l -1.756107,3.04164 h -1.39137 v -10.00946 h 10.009448 z m 0,0"
       id="path5287" />
    <path
       style="stroke-width:0.05728379"
       inkscape:connector-curvature="0"
       d="M 25.096935,269.39795 H 14.228228 c -0.23719,0 -0.429628,0.19244 -0.429628,0.42962 v 11.4024 c 0,0.23719 0.192438,0.42962 0.429628,0.42962 0.237191,0 0.429629,-0.19243 0.429629,-0.42962 v -10.97276 h 10.009448 v 14.10815 H 14.657857 v -1.39876 c 0,-0.23741 -0.192438,-0.42962 -0.429629,-0.42962 -0.23719,0 -0.429628,0.19221 -0.429628,0.42962 v 1.82839 c 0,0.23719 0.192438,0.42962 0.429628,0.42962 h 10.868707 c 0.23719,0 0.429628,-0.19243 0.429628,-0.42962 v -14.96742 c 0,-0.23718 -0.192438,-0.42962 -0.429628,-0.42962 z m 0,0"
       id="path5289" />
    <path
       style="stroke-width:0.05728379"
       inkscape:connector-curvature="0"
       d="m 16.066009,272.5282 h 2.635055 c 0.23719,0 0.429628,-0.19244 0.429628,-0.42963 0,-0.23742 -0.192438,-0.42963 -0.429628,-0.42963 h -2.635055 c -0.237414,0 -0.429628,0.19221 -0.429628,0.42963 0,0.23719 0.192214,0.42963 0.429628,0.42963 z m 0,0"
       id="path5291" />
    <path
       style="stroke-width:0.05728379"
       inkscape:connector-curvature="0"
       d="m 16.066009,274.41856 h 7.193145 c 0.237413,0 0.429628,-0.19244 0.429628,-0.42962 0,-0.23742 -0.192215,-0.42964 -0.429628,-0.42964 h -7.193145 c -0.237414,0 -0.429628,0.19222 -0.429628,0.42964 0,0.23718 0.192214,0.42962 0.429628,0.42962 z m 0,0"
       id="path5293" />
    <path
       style="stroke-width:0.05728379"
       inkscape:connector-curvature="0"
       d="m 16.066009,276.5667 h 7.193145 c 0.237413,0 0.429628,-0.19244 0.429628,-0.42963 0,-0.2374 -0.192215,-0.42962 -0.429628,-0.42962 h -7.193145 c -0.237414,0 -0.429628,0.19222 -0.429628,0.42962 0,0.23719 0.192214,0.42963 0.429628,0.42963 z m 0,0"
       id="path5295" />
    <path
       style="stroke-width:0.05728379"
       inkscape:connector-curvature="0"
       d="m 16.066009,278.71485 h 7.193145 c 0.237413,0 0.429628,-0.19243 0.429628,-0.42963 0,-0.23742 -0.192215,-0.42962 -0.429628,-0.42962 h -7.193145 c -0.237414,0 -0.429628,0.1922 -0.429628,0.42962 0,0.2372 0.192214,0.42963 0.429628,0.42963 z m 0,0"
       id="path5297" />
    <path
       style="stroke-width:0.05728379"
       inkscape:connector-curvature="0"
       d="m 16.066009,280.863 h 7.193145 c 0.237413,0 0.429628,-0.19245 0.429628,-0.42965 0,-0.2374 -0.192215,-0.42962 -0.429628,-0.42962 h -7.193145 c -0.237414,0 -0.429628,0.19222 -0.429628,0.42962 0,0.2372 0.192214,0.42965 0.429628,0.42965 z m 0,0"
       id="path5299" />
    <path
       style="stroke-width:0.05728379"
       inkscape:connector-curvature="0"
       d="M 38.100356,255.89531 H 27.23165 c -0.237191,0 -0.429628,0.19243 -0.429628,0.42963 v 14.9674 c 0,0.2372 0.192437,0.42965 0.429628,0.42965 h 2.817648 c 0.237191,0 0.429628,-0.19245 0.429628,-0.42965 0,-0.23718 -0.192437,-0.42962 -0.429628,-0.42962 h -2.38802 v -14.10815 h 10.009449 v 14.10815 h -5.798194 c -0.237189,0 -0.429627,0.19244 -0.429627,0.42962 0,0.2372 0.192438,0.42965 0.429627,0.42965 h 6.227823 c 0.237192,0 0.429629,-0.19245 0.429629,-0.42965 v -14.9674 c 0,-0.2372 -0.192437,-0.42963 -0.429629,-0.42963 z m 0,0"
       id="path5301" />
    <path
       style="stroke-width:0.05728379"
       inkscape:connector-curvature="0"
       d="m 29.069431,259.02534 h 2.635055 c 0.237191,0 0.429628,-0.19222 0.429628,-0.42964 0,-0.23719 -0.192437,-0.42963 -0.429628,-0.42963 h -2.635055 c -0.237413,0 -0.429628,0.19244 -0.429628,0.42963 0,0.23742 0.192215,0.42964 0.429628,0.42964 z m 0,0"
       id="path5303" />
    <path
       style="stroke-width:0.05728379"
       inkscape:connector-curvature="0"
       d="m 36.262575,268.59173 h -2.635054 c -0.237191,0 -0.429628,0.19243 -0.429628,0.42963 0,0.23741 0.192437,0.42963 0.429628,0.42963 h 2.635054 c 0.237416,0 0.429629,-0.19222 0.429629,-0.42963 0,-0.2372 -0.192213,-0.42963 -0.429629,-0.42963 z m 0,0"
       id="path5305" />
    <path
       style="stroke-width:0.05728379"
       inkscape:connector-curvature="0"
       d="m 29.069431,260.91569 h 7.193144 c 0.237416,0 0.429629,-0.1922 0.429629,-0.42962 0,-0.23719 -0.192213,-0.42963 -0.429629,-0.42963 h -7.193144 c -0.237413,0 -0.429628,0.19244 -0.429628,0.42963 0,0.23742 0.192215,0.42962 0.429628,0.42962 z m 0,0"
       id="path5307" />
    <path
       style="stroke-width:0.05728379"
       inkscape:connector-curvature="0"
       d="m 29.069431,263.06384 h 7.193144 c 0.237416,0 0.429629,-0.19221 0.429629,-0.42963 0,-0.23719 -0.192213,-0.42962 -0.429629,-0.42962 h -7.193144 c -0.237413,0 -0.429628,0.19243 -0.429628,0.42962 0,0.23742 0.192215,0.42963 0.429628,0.42963 z m 0,0"
       id="path5309" />
    <path
       style="stroke-width:0.05728379"
       inkscape:connector-curvature="0"
       d="m 29.069431,265.21199 h 7.193144 c 0.237416,0 0.429629,-0.19222 0.429629,-0.42964 0,-0.23718 -0.192213,-0.42962 -0.429629,-0.42962 h -7.193144 c -0.237413,0 -0.429628,0.19244 -0.429628,0.42962 0,0.23742 0.192215,0.42964 0.429628,0.42964 z m 0,0"
       id="path5311" />
    <path
       style="stroke-width:0.05728379"
       inkscape:connector-curvature="0"
       d="m 29.069431,267.36013 h 7.193144 c 0.237416,0 0.429629,-0.19222 0.429629,-0.42964 0,-0.23719 -0.192213,-0.42962 -0.429629,-0.42962 h -7.193144 c -0.237413,0 -0.429628,0.19243 -0.429628,0.42962 0,0.23742 0.192215,0.42964 0.429628,0.42964 z m 0,0"
       id="path5313" />
    <path
       style="stroke-width:0.05728379"
       inkscape:connector-curvature="0"
       d="M 38.100356,273.49665 H 27.23165 c -0.237191,0 -0.429628,0.19243 -0.429628,0.42963 v 10.86871 c 0,0.23719 0.192437,0.42962 0.429628,0.42962 h 10.868706 c 0.237192,0 0.429629,-0.19243 0.429629,-0.42962 v -10.86871 c 0,-0.2372 -0.192437,-0.42963 -0.429629,-0.42963 z m -0.429629,10.86871 H 27.661278 v -10.00945 h 10.009449 z m 0,0"
       id="path5315" />
    <path
       style="display:inline;stroke-width:0.05728379"
       inkscape:connector-curvature="0"
       d="M 38.100358,273.49665 H 27.231651 c -0.23719,0 -0.429628,0.19243 -0.429628,0.42962 v 10.86871 c 0,0.23741 0.192438,0.42963 0.429628,0.42963 h 10.868707 c 0.23719,0 0.429628,-0.19222 0.429628,-0.42963 v -10.86871 c 0,-0.23719 -0.192438,-0.42962 -0.429628,-0.42962 z m -8.055535,10.86871 2.766628,-4.79193 2.766628,4.79193 z m 3.865091,-4.608 -0.726341,-1.25801 c -0.07675,-0.1329 -0.218395,-0.21481 -0.372122,-0.21481 -0.153502,0 -0.295144,0.0819 -0.371897,0.21481 l -1.196246,2.07185 c -0.90334,-0.32916 -1.513994,-1.18596 -1.513994,-2.16963 0,-1.27389 1.03648,-2.31015 2.310372,-2.31015 1.273894,0 2.31015,1.03626 2.31015,2.31015 0,0.49183 -0.154846,0.96354 -0.439922,1.35579 z m 3.760813,4.608 h -1.10025 l -2.202294,-3.81431 c 0.542406,-0.58715 0.840909,-1.34862 0.840909,-2.14948 0,-1.74761 -1.421802,-3.1694 -3.169406,-3.1694 -1.747604,0 -3.169628,1.42179 -3.169628,3.1694 0,1.29829 0.775792,2.43591 1.938699,2.92215 l -1.756107,3.04164 h -1.39137 v -10.00945 h 10.009447 z m 0,0"
       id="path5287-6" />
  </g>
  <g
     inkscape:groupmode="layer"
     id="layer2"
     inkscape:label="Calque 2"
     style="display:inline" />
</svg>
